core_test.vcd
$version Generated by VerilatedVcd $end
$timescale 1ps $end
 $scope module TOP $end
  $scope module rvDefs $end
   $var wire 32 V! XLEN [31:0] $end
   $var wire 32 V! XREG_COUNT [31:0] $end
   $var wire 32 V! IALIGN [31:0] $end
   $var wire 32 V! ILEN [31:0] $end
   $var wire 32 W! BYTE_BITS [31:0] $end
   $var wire 32 X! HALFWORD_BITS [31:0] $end
   $var wire 32 V! WORD_BITS [31:0] $end
  $upscope $end
  $scope module tb $end
   $var wire 1 G! clk $end
   $var wire 1 H! resetN $end
   $var wire 1 I! stall $end
   $var wire 32 6 instruction [31:0] $end
   $var wire 32 7 instructionAddress [31:0] $end
   $var wire 32 } memAddress [31:0] $end
   $var wire 32 J! memReadData [31:0] $end
   $var wire 32 ~ memWriteData [31:0] $end
   $var wire 1 !! memRead $end
   $var wire 1 "! memWrite $end
   $var wire 3 #! memSize [2:0] $end
   $scope module dut $end
    $var wire 1 G! clk $end
    $var wire 1 H! resetN $end
    $var wire 32 6 instruction [31:0] $end
    $var wire 32 7 instructionAddress [31:0] $end
    $var wire 32 } memAddress [31:0] $end
    $var wire 32 J! memReadData [31:0] $end
    $var wire 32 ~ memWriteData [31:0] $end
    $var wire 1 !! memRead $end
    $var wire 1 "! memWrite $end
    $var wire 3 #! memSize [2:0] $end
    $var wire 1 I! stall $end
    $var wire 1 # PC_update $end
    $var wire 1 $ IFID_write $end
    $var wire 1 % IDEX_delay $end
    $var wire 2 & ForwardA [1:0] $end
    $var wire 2 ' ForwardB [1:0] $end
    $var wire 2 ( ForwardID_A [1:0] $end
    $var wire 1 ) branchPass $end
    $var wire 1 * branchTaken_EX $end
    $var wire 1 8 branchPrediction $end
    $var wire 1 9 jump_EX $end
    $var wire 1 + pipelineFlush $end
    $var wire 32 K! branchAddress [31:0] $end
    $var wire 1 L! loadPCValue $end
    $var wire 32 $! instruction_ID [31:0] $end
    $var wire 32 : instructionAddress_ID [31:0] $end
    $var wire 5 %! rs1 [4:0] $end
    $var wire 5 &! rs2 [4:0] $end
    $var wire 5 '! rd [4:0] $end
    $var wire 1 (! xaluArithmeticFlag $end
    $var wire 3 )! xaluOp [2:0] $end
    $var wire 1 *! zeroXaluPrimary $end
    $var wire 1 +! pcXaluPrimary $end
    $var wire 1 ,! immediateXaluSecondary $end
    $var wire 2 -! memoryOpSize [1:0] $end
    $var wire 1 .! unsignedLoad $end
    $var wire 1 /! storeLoad $end
    $var wire 2 0! branchOp [1:0] $end
    $var wire 1 1! branchNegate $end
    $var wire 1 2! jump $end
    $var wire 2 3! writeSource [1:0] $end
    $var wire 32 4! immediate [31:0] $end
    $var wire 32 M! read1Data [31:0] $end
    $var wire 32 N! read2Data [31:0] $end
    $var wire 2 ; writeSource_EX [1:0] $end
    $var wire 1 5! writeEnable_EX $end
    $var wire 32 < read1Data_EX [31:0] $end
    $var wire 32 = read2Data_EX [31:0] $end
    $var wire 5 > rs1_EX [4:0] $end
    $var wire 5 ? rs2_EX [4:0] $end
    $var wire 5 6! rd_EX [4:0] $end
    $var wire 32 @ instructionAddress_EX [31:0] $end
    $var wire 32 A immediate_EX [31:0] $end
    $var wire 3 B xaluOp_EX [2:0] $end
    $var wire 1 C xaluArithmeticFlag_EX $end
    $var wire 2 7! memoryOpSize_EX [1:0] $end
    $var wire 1 D unsignedLoad_EX $end
    $var wire 1 8! storeLoad_EX $end
    $var wire 1 E pcXaluPrimary_EX $end
    $var wire 1 F immediateXaluSecondary_EX $end
    $var wire 1 G zeroXaluPrimary_EX $end
    $var wire 2 H branchOp_EX [1:0] $end
    $var wire 1 I branchNegate_EX $end
    $var wire 1 9 jump_EX_reg $end
    $var wire 32 J instruction_EX [31:0] $end
    $var wire 1 K branchPrediction_EX $end
    $var wire 1 9! JALR_flag $end
    $var wire 1 L JALR_EX $end
    $var wire 32 , fwd_rs1 [31:0] $end
    $var wire 32 - fwd_rs2 [31:0] $end
    $var wire 32 O! branchTargetJALR [31:0] $end
    $var wire 32 . xalu_primary [31:0] $end
    $var wire 32 / xalu_secondary [31:0] $end
    $var wire 32 0 aluResult [31:0] $end
    $var wire 7 M opcodeBranchResolution [6:0] $end
    $var wire 1 1 branchCorrection $end
    $var wire 32 2 branchCorrectionAddress [31:0] $end
    $var wire 1 3 branchMispredicted_EX $end
    $var wire 2 N writeSource_MEM [1:0] $end
    $var wire 1 :! writeEnable_MEM $end
    $var wire 5 ;! rd_MEM [4:0] $end
    $var wire 2 <! memoryOpSize_MEM [1:0] $end
    $var wire 1 O unsignedLoad_MEM $end
    $var wire 1 =! storeLoad_MEM $end
    $var wire 32 } address_MEM [31:0] $end
    $var wire 32 P instructionAddress_MEM [31:0] $end
    $var wire 32 S! memWriteData_MEM [31:0] $end
    $var wire 32 P! memToRegData [31:0] $end
    $var wire 1 >! writeEnable_WB $end
    $var wire 32 Q address_WB [31:0] $end
    $var wire 5 ?! rd_WB [4:0] $end
    $var wire 32 R memToRegData_WB [31:0] $end
    $var wire 32 S instructionAddress_WB [31:0] $end
    $var wire 2 T writeSource_WB [1:0] $end
    $var wire 32 @! registerWriteData [31:0] $end
    $scope module EXMEM_stage $end
     $var wire 1 G! clk $end
     $var wire 1 H! resetN $end
     $var wire 2 7! memoryOpSize_EX [1:0] $end
     $var wire 1 D unsignedLoad_EX $end
     $var wire 1 8! storeLoad_EX $end
     $var wire 32 0 address_EX [31:0] $end
     $var wire 5 6! rd_EX [4:0] $end
     $var wire 1 5! writeEnable_EX $end
     $var wire 2 ; writeSource_EX [1:0] $end
     $var wire 32 @ instructionAddress_EX [31:0] $end
     $var wire 32 - memWriteData_EX [31:0] $end
     $var wire 32 ~ memWriteData_MEM [31:0] $end
     $var wire 32 P instructionAddress_MEM [31:0] $end
     $var wire 2 N writeSource_MEM [1:0] $end
     $var wire 1 :! writeEnable_MEM $end
     $var wire 5 ;! rd_MEM [4:0] $end
     $var wire 2 <! memoryOpSize_MEM [1:0] $end
     $var wire 1 O unsignedLoad_MEM $end
     $var wire 1 =! storeLoad_MEM $end
     $var wire 32 } address_MEM [31:0] $end
    $upscope $end
    $scope module IDEX_stage $end
     $var wire 1 G! clk $end
     $var wire 1 H! resetN $end
     $var wire 1 + flush $end
     $var wire 1 % IDEX_delay $end
     $var wire 32 M! read1Data_ID [31:0] $end
     $var wire 32 N! read2Data_ID [31:0] $end
     $var wire 5 %! rs1_ID [4:0] $end
     $var wire 5 &! rs2_ID [4:0] $end
     $var wire 5 '! rd_ID [4:0] $end
     $var wire 32 : instructionAddress_ID [31:0] $end
     $var wire 32 4! immediate_ID [31:0] $end
     $var wire 3 )! xaluOp_ID [2:0] $end
     $var wire 1 (! xaluArithmeticFlag_ID $end
     $var wire 2 -! memoryOpSize_ID [1:0] $end
     $var wire 1 .! unsignedLoad_ID $end
     $var wire 1 /! storeLoad_ID $end
     $var wire 1 A! writeEnable_ID $end
     $var wire 2 3! writeSource_ID [1:0] $end
     $var wire 1 +! pcXaluPrimary_ID $end
     $var wire 1 ,! immediateXaluSecondary_ID $end
     $var wire 1 *! zeroXaluPrimary_ID $end
     $var wire 2 0! branchOp_ID [1:0] $end
     $var wire 1 1! branchNegate_ID $end
     $var wire 32 $! instruction_ID [31:0] $end
     $var wire 1 2! jump_ID $end
     $var wire 1 9! JALR_ID $end
     $var wire 1 8 branchPrediction_ID $end
     $var wire 1 K branchPrediction_EX $end
     $var wire 1 L JALR_EX $end
     $var wire 2 H branchOp_EX [1:0] $end
     $var wire 1 I branchNegate_EX $end
     $var wire 1 9 jump_EX $end
     $var wire 1 G zeroXaluPrimary_EX $end
     $var wire 1 F immediateXaluSecondary_EX $end
     $var wire 2 ; writeSource_EX [1:0] $end
     $var wire 1 5! writeEnable_EX $end
     $var wire 32 < read1Data_EX [31:0] $end
     $var wire 32 = read2Data_EX [31:0] $end
     $var wire 5 > rs1_EX [4:0] $end
     $var wire 5 ? rs2_EX [4:0] $end
     $var wire 5 6! rd_EX [4:0] $end
     $var wire 32 @ instructionAddress_EX [31:0] $end
     $var wire 32 A immediate_EX [31:0] $end
     $var wire 3 B xaluOp_EX [2:0] $end
     $var wire 1 C xaluArithmeticFlag_EX $end
     $var wire 2 7! memoryOpSize_EX [1:0] $end
     $var wire 1 D unsignedLoad_EX $end
     $var wire 1 8! storeLoad_EX $end
     $var wire 1 E pcXaluPrimary_EX $end
     $var wire 32 J instruction_EX [31:0] $end
    $upscope $end
    $scope module IFID_stage $end
     $var wire 1 G! clk $end
     $var wire 1 H! resetN $end
     $var wire 1 $ IFID_write $end
     $var wire 1 + flush $end
     $var wire 32 7 instructionAddress_IF [31:0] $end
     $var wire 32 6 instructions_IF [31:0] $end
     $var wire 32 $! instructions_ID [31:0] $end
     $var wire 32 : instructionAddress_ID [31:0] $end
    $upscope $end
    $scope module MEMWB_stage $end
     $var wire 1 G! clk $end
     $var wire 1 H! resetN $end
     $var wire 5 ;! rd_MEM [4:0] $end
     $var wire 32 } address_MEM [31:0] $end
     $var wire 1 :! writeEnable_MEM $end
     $var wire 32 P! memToRegData_MEM [31:0] $end
     $var wire 2 N writeSource_MEM [1:0] $end
     $var wire 32 P instructionAddress_MEM [31:0] $end
     $var wire 32 S instructionAddress_WB [31:0] $end
     $var wire 2 T writeSource_WB [1:0] $end
     $var wire 1 >! writeEnable_WB $end
     $var wire 32 Q address_WB [31:0] $end
     $var wire 5 ?! rd_WB [4:0] $end
     $var wire 32 R memToRegData_WB [31:0] $end
    $upscope $end
    $scope module branchAddresser $end
     $var wire 32 : PCAddress [31:0] $end
     $var wire 32 4! offset [31:0] $end
     $var wire 32 O! branchTargetJALR [31:0] $end
     $var wire 7 B! opcode [6:0] $end
     $var wire 32 K! BranchAddress [31:0] $end
    $upscope $end
    $scope module branchPredictor $end
     $var wire 1 G! clk $end
     $var wire 1 H! resetN $end
     $var wire 1 * branchTaken $end
     $var wire 1 C! branchRequested $end
     $var wire 1 8 branchPrediction $end
     $var wire 2 U saturationCounter [1:0] $end
     $var wire 1 V req_delay1 $end
     $var wire 1 W req_delay2 $end
     $var wire 1 X branchPrediction_value $end
     $var wire 1 Y branchPrediction_delay1 $end
     $var wire 1 Z branchPrediction_delay2 $end
    $upscope $end
    $scope module forwardingUnit $end
     $var wire 1 H! resetN $end
     $var wire 5 > rs1 [4:0] $end
     $var wire 5 ? rs2 [4:0] $end
     $var wire 5 ;! EXMEM_rd [4:0] $end
     $var wire 1 :! EXMEM_RegWrite $end
     $var wire 5 ?! MEMWB_rd [4:0] $end
     $var wire 1 >! MEMWB_RegWrite $end
     $var wire 5 %! ID_rs1 [4:0] $end
     $var wire 2 & ForwardA [1:0] $end
     $var wire 2 ' ForwardB [1:0] $end
     $var wire 2 ( ForwardID_A [1:0] $end
    $upscope $end
    $scope module hazardDetection $end
     $var wire 1 G! clk $end
     $var wire 1 H! resetN $end
     $var wire 5 %! IDEX_r1 [4:0] $end
     $var wire 5 &! IDEX_r2 [4:0] $end
     $var wire 5 6! EXMEM_rd [4:0] $end
     $var wire 1 D! IDEX_memread $end
     $var wire 32 6 instruction_IF [31:0] $end
     $var wire 1 # PC_update $end
     $var wire 1 $ IFID_write $end
     $var wire 1 % IDEX_delay $end
     $var wire 2 [ loadCounter [1:0] $end
     $var wire 1 \ loadInstruction $end
     $var wire 7 ] opcode [6:0] $end
    $upscope $end
    $scope module immediateGenerator $end
     $var wire 32 $! instruction [31:0] $end
     $var wire 32 4! immediate [31:0] $end
     $var wire 7 B! opcode [6:0] $end
    $upscope $end
    $scope module instructionDecoder $end
     $var wire 32 $! instruction [31:0] $end
     $var wire 5 %! rs1 [4:0] $end
     $var wire 5 &! rs2 [4:0] $end
     $var wire 5 '! rd [4:0] $end
     $var wire 1 (! xaluArithmeticFlag $end
     $var wire 3 )! xaluOp [2:0] $end
     $var wire 1 *! zeroXaluPrimary $end
     $var wire 1 +! pcXaluPrimary $end
     $var wire 1 ,! immediateXaluSecondary $end
     $var wire 2 -! memoryOpSize [1:0] $end
     $var wire 1 .! unsignedLoad $end
     $var wire 1 /! storeLoad $end
     $var wire 2 0! branchOp [1:0] $end
     $var wire 1 1! branchNegate $end
     $var wire 1 2! jump $end
     $var wire 1 9! JALR $end
     $var wire 2 3! writeSource [1:0] $end
     $var wire 7 B! opcode [6:0] $end
     $var wire 3 E! funct3 [2:0] $end
     $var wire 1 F! funct7_5 $end
    $upscope $end
    $scope module lsu $end
     $var wire 2 <! memoryOpSize [1:0] $end
     $var wire 1 O unsignedLoad $end
     $var wire 1 =! storeLoad $end
     $var wire 32 } address [31:0] $end
     $var wire 32 J! readData [31:0] $end
     $var wire 1 "! memWrite $end
     $var wire 1 !! memRead $end
     $var wire 3 #! memSize [2:0] $end
     $var wire 32 P! memToRegData [31:0] $end
    $upscope $end
    $scope module programCounter $end
     $var wire 32 T! RESET_VALUE [31:0] $end
     $var wire 1 G! clk $end
     $var wire 1 H! resetN $end
     $var wire 1 4 enable $end
     $var wire 1 L! branchPrediction $end
     $var wire 1 1 branchCorrection $end
     $var wire 32 K! addrLoad [31:0] $end
     $var wire 32 2 branchCorrectionLoad [31:0] $end
     $var wire 32 7 addrOut [31:0] $end
     $var wire 32 U! INCREMENT [31:0] $end
     $var wire 32 Q! addrNext [31:0] $end
    $upscope $end
    $scope module xAlu $end
     $var wire 32 . inputPrimary [31:0] $end
     $var wire 32 / inputSecondary [31:0] $end
     $var wire 3 B operation [2:0] $end
     $var wire 1 C arithmeticFlag $end
     $var wire 32 0 result [31:0] $end
     $var wire 5 5 shamt [4:0] $end
    $upscope $end
    $scope module xRegisterFile $end
     $var wire 1 G! clk $end
     $var wire 1 >! writeEnable $end
     $var wire 5 %! read1Reg [4:0] $end
     $var wire 5 &! read2Reg [4:0] $end
     $var wire 5 ?! writeReg [4:0] $end
     $var wire 32 @! writeData [31:0] $end
     $var wire 32 M! read1Data [31:0] $end
     $var wire 32 N! read2Data [31:0] $end
     $var wire 32 ^ registers[1] [31:0] $end
     $var wire 32 _ registers[2] [31:0] $end
     $var wire 32 ` registers[3] [31:0] $end
     $var wire 32 a registers[4] [31:0] $end
     $var wire 32 b registers[5] [31:0] $end
     $var wire 32 c registers[6] [31:0] $end
     $var wire 32 d registers[7] [31:0] $end
     $var wire 32 e registers[8] [31:0] $end
     $var wire 32 f registers[9] [31:0] $end
     $var wire 32 g registers[10] [31:0] $end
     $var wire 32 h registers[11] [31:0] $end
     $var wire 32 i registers[12] [31:0] $end
     $var wire 32 j registers[13] [31:0] $end
     $var wire 32 k registers[14] [31:0] $end
     $var wire 32 l registers[15] [31:0] $end
     $var wire 32 m registers[16] [31:0] $end
     $var wire 32 n registers[17] [31:0] $end
     $var wire 32 o registers[18] [31:0] $end
     $var wire 32 p registers[19] [31:0] $end
     $var wire 32 q registers[20] [31:0] $end
     $var wire 32 r registers[21] [31:0] $end
     $var wire 32 s registers[22] [31:0] $end
     $var wire 32 t registers[23] [31:0] $end
     $var wire 32 u registers[24] [31:0] $end
     $var wire 32 v registers[25] [31:0] $end
     $var wire 32 w registers[26] [31:0] $end
     $var wire 32 x registers[27] [31:0] $end
     $var wire 32 y registers[28] [31:0] $end
     $var wire 32 z registers[29] [31:0] $end
     $var wire 32 { registers[30] [31:0] $end
     $var wire 32 | registers[31] [31:0] $end
    $upscope $end
   $upscope $end
   $scope module unnamedblk1 $end
    $var wire 32 R! i [31:0] $end
   $upscope $end
  $upscope $end
 $upscope $end
$enddefinitions $end


#0
1#
1$
0%
b00 &
b00 '
b00 (
1)
1*
1+
b00000000000000000000000000000000 ,
b00000000000000000000000000000000 -
b00000000000000000000000000000000 .
b00000000000000000000000000000000 /
b00000000000000000000000000000000 0
11
b00000000000000000000000000000000 2
13
14
b00000 5
b00000000101000000000001010010011 6
b00000000000000000000000000000000 7
08
09
b00000000000000000000000000000000 :
b00 ;
b00000000000000000000000000000000 <
b00000000000000000000000000000000 =
b00000 >
b00000 ?
b00000000000000000000000000000000 @
b00000000000000000000000000000000 A
b000 B
0C
0D
0E
0F
0G
b00 H
0I
b00000000000000000000000000000000 J
0K
0L
b0000000 M
b00 N
0O
b00000000000000000000000000000000 P
b00000000000000000000000000000000 Q
b00000000000000000000000000000000 R
b00000000000000000000000000000000 S
b00 T
b00 U
0V
0W
0X
0Y
0Z
b00 [
0\
b0010011 ]
b00000000000000000000000000000000 ^
b00000000000000000000000000000000 _
b00000000000000000000000000000000 `
b00000000000000000000000000000000 a
b00000000000000000000000000000000 b
b00000000000000000000000000000000 c
b00000000000000000000000000000000 d
b00000000000000000000000000000000 e
b00000000000000000000000000000000 f
b00000000000000000000000000000000 g
b00000000000000000000000000000000 h
b00000000000000000000000000000000 i
b00000000000000000000000000000000 j
b00000000000000000000000000000000 k
b00000000000000000000000000000000 l
b00000000000000000000000000000000 m
b00000000000000000000000000000000 n
b00000000000000000000000000000000 o
b00000000000000000000000000000000 p
b00000000000000000000000000000000 q
b00000000000000000000000000000000 r
b00000000000000000000000000000000 s
b00000000000000000000000000000000 t
b00000000000000000000000000000000 u
b00000000000000000000000000000000 v
b00000000000000000000000000000000 w
b00000000000000000000000000000000 x
b00000000000000000000000000000000 y
b00000000000000000000000000000000 z
b00000000000000000000000000000000 {
b00000000000000000000000000000000 |
b00000000000000000000000000000000 }
b00000000000000000000000000000000 ~
1!!
0"!
b000 #!
b00000000000000000000000000000000 $!
b00000 %!
b00000 &!
b00000 '!
0(!
b000 )!
0*!
0+!
0,!
b11 -!
0.!
0/!
b01 0!
01!
02!
b00 3!
b00000000000000000000000000000000 4!
05!
b00000 6!
b00 7!
08!
09!
0:!
b00000 ;!
b00 <!
0=!
0>!
b00000 ?!
b00000000000000000000000000000000 @!
0A!
b0000000 B!
0C!
1D!
b000 E!
0F!
0G!
0H!
0I!
b00000000000000000000000000000000 J!
b00000000000000000000000000000000 K!
0L!
b00000000000000000000000000000000 M!
b00000000000000000000000000000000 N!
b00000000000000000000000000000000 O!
b00000000000000000000000000000000 P!
b00000000000000000000000000000000 Q!
b00000000000000000000001000000000 R!
b00000000000000000000000000000000 S!
b00000000000000000000000000000000 T!
b00000000000000000000000000000100 U!
b00000000000000000000000000100000 V!
b00000000000000000000000000001000 W!
b00000000000000000000000000010000 X!
#5000
0)
0*
0+
01
03
b01 H
b01 U
0!!
b111 #!
b11 7!
b11 <!
0D!
1G!
b00000000000000000000000000000100 Q!
#10000
0G!
#15000
b11111111011000000000001100010011 6
b00000000000000000000000000000100 7
b00000000101000000000001010010011 $!
b01010 &!
b00101 '!
1,!
b11 3!
b00000000000000000000000000001010 4!
1A!
b0010011 B!
1G!
1H!
b00000000000000000000000000001000 Q!
#20000
0G!
#25000
b00000000000000000000000000001010 /
b00000000000000000000000000001010 0
b01010 5
b01000000011000101000001110110011 6
b00000000000000000000000000001000 7
b00000000000000000000000000000100 :
b11 ;
b01010 ?
b00000000000000000000000000001010 A
1F
b00000000101000000000001010010011 J
b0010011 M
b0110011 ]
b11111111011000000000001100010011 $!
b10110 &!
b00110 '!
b11111111111111111111111111110110 4!
15!
b00101 6!
1F!
1G!
b00000000000000000000000000001100 Q!
#30000
0G!
#35000
b10 (
b11111111111111111111111111110110 /
b11111111111111111111111111110110 0
b10110 5
b00000000001000101001010000010011 6
b00000000000000000000000000001100 7
b00000000000000000000000000001000 :
b10110 ?
b00000000000000000000000000000100 @
b11111111111111111111111111110110 A
b11111111011000000000001100010011 J
b11 N
b0010011 ]
b00000000000000000000000000001010 }
b01000000011000101000001110110011 $!
b00101 %!
b00110 &!
b00111 '!
1(!
0,!
b00000000000000000000000000000000 4!
b00110 6!
1:!
b00101 ;!
b0110011 B!
1G!
b00000000000000000000000000001010 O!
b00000000000000000000000000010000 Q!
#40000
0G!
#45000
b01 &
b10 '
b01 (
b00000000000000000000000000001010 ,
b11111111111111111111111111110110 -
b00000000000000000000000000001010 .
b00000000000000000000000000010100 0
b01000000000100110101010010010011 6
b00000000000000000000000000010000 7
b00000000000000000000000000001100 :
b00101 >
b00110 ?
b00000000000000000000000000001000 @
b00000000000000000000000000000000 A
1C
0F
b01000000011000101000001110110011 J
b0110011 M
b00000000000000000000000000000100 P
b00000000000000000000000000001010 Q
b11 T
b11111111111111111111111111110110 }
b00000000001000101001010000010011 $!
b00010 &!
b01000 '!
0(!
b001 )!
1,!
11!
b00000000000000000000000000000010 4!
b00111 6!
b00110 ;!
1>!
b00101 ?!
b00000000000000000000000000001010 @!
b0010011 B!
b001 E!
0F!
1G!
b00000000000000000000000000010100 Q!
#50000
b00000000000000000000000000001010 b
0G!
b00000000000000000000000000001010 M!
#55000
b00 &
b00 '
b00000000000000000000000000000000 -
b00000000000000000000000000000010 /
b00000000000000000000000000101000 0
b00010 5
b00000000001000110101010100110011 6
b00000000000000000000000000010100 7
b00000000000000000000000000010000 :
b00000000000000000000000000001010 <
b00010 ?
b00000000000000000000000000001100 @
b00000000000000000000000000000010 A
b001 B
0C
1F
1I
b00000000001000101001010000010011 J
b0010011 M
b00000000000000000000000000001000 P
b11111111111111111111111111110110 Q
b00000000000000000000000000000100 S
b0110011 ]
b00000000000000000000000000010100 }
b11111111111111111111111111110110 ~
b01000000000100110101010010010011 $!
b00110 %!
b00001 &!
b01001 '!
1(!
b101 )!
1.!
b00000000000000000000010000000001 4!
b01000 6!
b00111 ;!
b00110 ?!
b11111111111111111111111111110110 @!
b101 E!
1F!
1G!
b00000000000000000000000000000000 M!
b11111111111111111111111111110110 O!
b00000000000000000000000000011000 Q!
#60000
b11111111111111111111111111110110 c
0G!
b11111111111111111111111111110110 M!
#65000
b00 (
b11111111111111111111111111110110 ,
b11111111111111111111111111110110 .
b00000000000000000000010000000001 /
b11111111111111111111111111111011 0
b00001 5
b00000000010100000000010110010011 6
b00000000000000000000000000011000 7
b00000000000000000000000000010100 :
b11111111111111111111111111110110 <
b00110 >
b00001 ?
b00000000000000000000000000010000 @
b00000000000000000000010000000001 A
b101 B
1C
1D
b01000000000100110101010010010011 J
b00000000000000000000000000001100 P
b00000000000000000000000000010100 Q
b00000000000000000000000000001000 S
b0010011 ]
b00000000000000000000000000101000 }
b00000000000000000000000000000000 ~
b00000000001000110101010100110011 $!
b00010 &!
b01010 '!
0(!
0,!
b00000000000000000000000000000000 4!
b01001 6!
b01000 ;!
b00111 ?!
b00000000000000000000000000010100 @!
b0110011 B!
0F!
1G!
b00000000000000000000000000011100 Q!
#70000
b00000000000000000000000000010100 d
0G!
#75000
b00000000000000000000000000000000 /
b11111111111111111111111111110110 0
b00000 5
b00000000101101011000011000110011 6
b00000000000000000000000000011100 7
b00000000000000000000000000011000 :
b00010 ?
b00000000000000000000000000010100 @
b00000000000000000000000000000000 A
0C
0F
b00000000001000110101010100110011 J
b0110011 M
1O
b00000000000000000000000000010000 P
b00000000000000000000000000101000 Q
b00000000000000000000000000001100 S
b0110011 ]
b11111111111111111111111111111011 }
b00000000010100000000010110010011 $!
b00000 %!
b00101 &!
b01011 '!
b000 )!
1,!
0.!
01!
b00000000000000000000000000000101 4!
b01010 6!
b01001 ;!
b01000 ?!
b00000000000000000000000000101000 @!
b0010011 B!
b000 E!
1G!
b00000000000000000000000000000000 M!
b00000000000000000000000000001010 N!
b00000000000000000000000000000000 O!
b00000000000000000000000000100000 Q!
#80000
b00000000000000000000000000101000 e
0G!
#85000
b00000000000000000000000000000000 ,
b00000000000000000000000000001010 -
b00000000000000000000000000000000 .
b00000000000000000000000000000101 /
b00000000000000000000000000000101 0
b00101 5
b00000000110001100000011010110011 6
b00000000000000000000000000100000 7
b00000000000000000000000000011100 :
b00000000000000000000000000000000 <
b00000000000000000000000000001010 =
b00000 >
b00101 ?
b00000000000000000000000000011000 @
b00000000000000000000000000000101 A
b000 B
0D
1F
0I
b00000000010100000000010110010011 J
b0010011 M
b00000000000000000000000000010100 P
b11111111111111111111111111111011 Q
b00000000000000000000000000010000 S
b11111111111111111111111111110110 }
b00000000101101011000011000110011 $!
b01011 %!
b01011 &!
b01100 '!
0,!
b00000000000000000000000000000000 4!
b01011 6!
b01010 ;!
b01001 ?!
b11111111111111111111111111111011 @!
b0110011 B!
1G!
b00000000000000000000000000000000 N!
b00000000000000000000000000100100 Q!
#90000
b11111111111111111111111111111011 f
0G!
#95000
b10 &
b10 '
b00000000000000000000000000000101 ,
b00000000000000000000000000000101 -
b00000000000000000000000000000101 .
b00000000000000000000000000001010 0
b00000000101101101000011100110011 6
b00000000000000000000000000100100 7
b00000000000000000000000000100000 :
b00000000000000000000000000000000 =
b01011 >
b01011 ?
b00000000000000000000000000011100 @
b00000000000000000000000000000000 A
0F
b00000000101101011000011000110011 J
b0110011 M
0O
b00000000000000000000000000011000 P
b11111111111111111111111111110110 Q
b00000000000000000000000000010100 S
b00000000000000000000000000000101 }
b00000000000000000000000000001010 ~
b00000000110001100000011010110011 $!
b01100 %!
b01100 &!
b01101 '!
b01100 6!
b01011 ;!
b01010 ?!
b11111111111111111111111111110110 @!
1G!
b00000000000000000000000000101000 Q!
#100000
b11111111111111111111111111110110 g
0G!
#105000
b00000000000000000000000000001010 ,
b00000000000000000000000000001010 -
b00000000000000000000000000001010 .
b00000000000000000000000000001010 /
b00000000000000000000000000010100 0
b01010 5
b00000010100000000010011110000011 6
b00000000000000000000000000101000 7
b00000000000000000000000000100100 :
b01100 >
b01100 ?
b00000000000000000000000000100000 @
b00000000110001100000011010110011 J
b00000000000000000000000000011100 P
b00000000000000000000000000000101 Q
b00000000000000000000000000011000 S
1\
b0000011 ]
b00000000000000000000000000001010 }
b00000000000000000000000000000101 ~
b00000000101101101000011100110011 $!
b01101 %!
b01011 &!
b01110 '!
b01101 6!
b01100 ;!
b01011 ?!
b00000000000000000000000000000101 @!
1G!
b00000000000000000000000000101100 Q!
#110000
b00000000000000000000000000000101 h
0G!
b00000000000000000000000000000101 N!
#115000
b00 '
b00000000000000000000000000010100 ,
b00000000000000000000000000000101 -
b00000000000000000000000000010100 .
b00000000000000000000000000000101 /
b00000000000000000000000000011001 0
b00101 5
b00000000000001111000100000110011 6
b00000000000000000000000000101100 7
b00000000000000000000000000101000 :
b00000000000000000000000000000101 =
b01101 >
b01011 ?
b00000000000000000000000000100100 @
b00000000101101101000011100110011 J
b00000000000000000000000000100000 P
b00000000000000000000000000001010 Q
b00000000000000000000000000011100 S
0\
b0110011 ]
b00000000000000000000000000010100 }
b00000000000000000000000000001010 ~
b00000010100000000010011110000011 $!
b00000 %!
b01000 &!
b01111 '!
1,!
b10 -!
b10 3!
b00000000000000000000000000101000 4!
b01110 6!
b01101 ;!
b01100 ?!
b00000000000000000000000000001010 @!
b0000011 B!
b010 E!
1G!
b00000000000000000000000000101000 N!
b00000000000000000000000000110000 Q!
#120000
b00000000000000000000000000001010 i
0G!
#125000
0#
0$
1%
b00 &
b00000000000000000000000000000000 ,
b00000000000000000000000000101000 -
b00000000000000000000000000000000 .
b00000000000000000000000000101000 /
b00000000000000000000000000101000 0
04
b01000 5
b00000000010101010000011001100011 6
b00000000000000000000000000110000 7
b00000000000000000000000000101100 :
b10 ;
b00000000000000000000000000101000 =
b00000 >
b01000 ?
b00000000000000000000000000101000 @
b00000000000000000000000000101000 A
1F
b00000010100000000010011110000011 J
b0000011 M
b00000000000000000000000000100100 P
b00000000000000000000000000010100 Q
b00000000000000000000000000100000 S
b1100011 ]
b00000000000000000000000000011001 }
b00000000000000000000000000000101 ~
b00000000000001111000100000110011 $!
b01111 %!
b00000 &!
b10000 '!
0,!
b11 -!
b11 3!
b00000000000000000000000000000000 4!
b01111 6!
b10 7!
b01110 ;!
b01101 ?!
b00000000000000000000000000010100 @!
b0110011 B!
1D!
b000 E!
1G!
b00000000000000000000000000000000 N!
b00000000000000000000000000110100 Q!
#130000
b00000000000000000000000000010100 j
0G!
#135000
1#
1$
0%
b10 (
b00000000000000000000000000000000 -
b00000000000000000000000000000000 /
b00000000000000000000000000000000 0
14
b00000 5
b00 ;
b00000000000000000000000000000000 =
b00000 ?
b00000000000000000000000000000000 @
b00000000000000000000000000000000 A
0F
b00000000000000000000000000000000 J
b0000000 M
b10 N
b00000000000000000000000000101000 P
b00000000000000000000000000011001 Q
b00000000000000000000000000100100 S
b00000000000000000000000000101000 }
b00000000000000000000000000101000 ~
1!!
b010 #!
05!
b00000 6!
b11 7!
b01111 ;!
b10 <!
b01110 ?!
b00000000000000000000000000011001 @!
0D!
1G!
b10100101101001010101101001011010 J!
b00000000000000000000000000101000 O!
b10100101101001010101101001011010 P!
#140000
b00000000000000000000000000011001 k
0G!
#145000
b01 &
b00 (
b10100101101001010101101001011010 ,
b10100101101001010101101001011010 .
b10100101101001010101101001011010 0
b00000000000000000000000000010011 6
b00000000000000000000000000110100 7
b00000000000000000000000000110000 :
b11 ;
b01111 >
b00000000000000000000000000101100 @
b00000000000001111000100000110011 J
b0110011 M
b00 N
b00000000000000000000000000000000 P
b00000000000000000000000000101000 Q
b10100101101001010101101001011010 R
b00000000000000000000000000101000 S
b10 T
b0010011 ]
b00000000000000000000000000000000 }
b00000000000000000000000000000000 ~
0!!
b111 #!
b00000000010101010000011001100011 $!
b01010 %!
b00101 &!
b01100 '!
1+!
1,!
b00 0!
b00 3!
b00000000000000000000000000001100 4!
15!
b10000 6!
0:!
b00000 ;!
b11 <!
b01111 ?!
b10100101101001010101101001011010 @!
0A!
b1100011 B!
1C!
1G!
b00000000000000000000000000000000 J!
b00000000000000000000000000111100 K!
b11111111111111111111111111110110 M!
b00000000000000000000000000001010 N!
b11111111111111111111111111110110 O!
b00000000000000000000000000000000 P!
b00000000000000000000000000111000 Q!
#150000
b10100101101001010101101001011010 l
0G!
