core_pipeline_test.vcd
$version Generated by VerilatedVcd $end
$timescale 1ps $end
 $scope module TOP $end
  $scope module rvDefs $end
   $var wire 32 C! XLEN [31:0] $end
   $var wire 32 C! XREG_COUNT [31:0] $end
   $var wire 32 C! IALIGN [31:0] $end
   $var wire 32 C! ILEN [31:0] $end
   $var wire 32 D! BYTE_BITS [31:0] $end
   $var wire 32 E! HALFWORD_BITS [31:0] $end
   $var wire 32 C! WORD_BITS [31:0] $end
  $upscope $end
  $scope module tb $end
   $var wire 1 3! clk $end
   $var wire 1 4! resetN $end
   $var wire 1 5! stall $end
   $var wire 32 . instruction [31:0] $end
   $var wire 32 / instructionAddress [31:0] $end
   $var wire 32 k memAddress [31:0] $end
   $var wire 32 6! memReadData [31:0] $end
   $var wire 32 l memWriteData [31:0] $end
   $var wire 1 m memRead $end
   $var wire 1 n memWrite $end
   $var wire 3 o memSize [2:0] $end
   $scope module dut $end
    $var wire 1 3! clk $end
    $var wire 1 4! resetN $end
    $var wire 32 . instruction [31:0] $end
    $var wire 32 / instructionAddress [31:0] $end
    $var wire 32 k memAddress [31:0] $end
    $var wire 32 6! memReadData [31:0] $end
    $var wire 32 l memWriteData [31:0] $end
    $var wire 1 m memRead $end
    $var wire 1 n memWrite $end
    $var wire 3 o memSize [2:0] $end
    $var wire 1 5! stall $end
    $var wire 1 0 PC_update $end
    $var wire 1 1 IFID_write $end
    $var wire 1 2 IDEX_delay $end
    $var wire 2 # ForwardA [1:0] $end
    $var wire 2 $ ForwardB [1:0] $end
    $var wire 1 % branchPass $end
    $var wire 1 & branchTaken_EX $end
    $var wire 1 >! jump_EX $end
    $var wire 32 p instruction_ID [31:0] $end
    $var wire 32 3 instructionAddress_ID [31:0] $end
    $var wire 5 q rs1 [4:0] $end
    $var wire 5 r rs2 [4:0] $end
    $var wire 5 s rd [4:0] $end
    $var wire 1 t xaluArithmeticFlag $end
    $var wire 3 u xaluOp [2:0] $end
    $var wire 1 v zeroXaluPrimary $end
    $var wire 1 w pcXaluPrimary $end
    $var wire 1 x immediateXaluSecondary $end
    $var wire 2 y memoryOpSize [1:0] $end
    $var wire 1 z unsignedLoad $end
    $var wire 1 { storeLoad $end
    $var wire 2 | branchOp [1:0] $end
    $var wire 1 } branchNegate $end
    $var wire 1 ~ jump $end
    $var wire 2 !! writeSource [1:0] $end
    $var wire 32 "! immediate [31:0] $end
    $var wire 32 7! read1Data [31:0] $end
    $var wire 32 8! read2Data [31:0] $end
    $var wire 2 4 writeSource_EX [1:0] $end
    $var wire 1 #! writeEnable_EX $end
    $var wire 32 5 read1Data_EX [31:0] $end
    $var wire 32 6 read2Data_EX [31:0] $end
    $var wire 5 7 rs1_EX [4:0] $end
    $var wire 5 8 rs2_EX [4:0] $end
    $var wire 5 $! rd_EX [4:0] $end
    $var wire 32 9 instructionAddress_EX [31:0] $end
    $var wire 32 : immediate_EX [31:0] $end
    $var wire 3 ; xaluOp_EX [2:0] $end
    $var wire 1 < xaluArithmeticFlag_EX $end
    $var wire 2 %! memoryOpSize_EX [1:0] $end
    $var wire 1 = unsignedLoad_EX $end
    $var wire 1 &! storeLoad_EX $end
    $var wire 1 > pcXaluPrimary_EX $end
    $var wire 1 ? immediateXaluSecondary_EX $end
    $var wire 1 @ zeroXaluPrimary_EX $end
    $var wire 2 A branchOp_EX [1:0] $end
    $var wire 1 ?! branchNegate_EX $end
    $var wire 1 >! jump_EX_reg $end
    $var wire 32 ' fwd_rs1 [31:0] $end
    $var wire 32 ( fwd_rs2 [31:0] $end
    $var wire 32 ) xalu_primary [31:0] $end
    $var wire 32 * xalu_secondary [31:0] $end
    $var wire 32 + aluResult [31:0] $end
    $var wire 2 B writeSource_MEM [1:0] $end
    $var wire 1 '! writeEnable_MEM $end
    $var wire 5 (! rd_MEM [4:0] $end
    $var wire 2 )! memoryOpSize_MEM [1:0] $end
    $var wire 1 C unsignedLoad_MEM $end
    $var wire 1 *! storeLoad_MEM $end
    $var wire 32 k address_MEM [31:0] $end
    $var wire 32 D instructionAddress_MEM [31:0] $end
    $var wire 32 @! memWriteData_MEM [31:0] $end
    $var wire 32 9! memToRegData [31:0] $end
    $var wire 1 +! writeEnable_WB $end
    $var wire 32 E address_WB [31:0] $end
    $var wire 5 ,! rd_WB [4:0] $end
    $var wire 32 F memToRegData_WB [31:0] $end
    $var wire 32 G instructionAddress_WB [31:0] $end
    $var wire 2 H writeSource_WB [1:0] $end
    $var wire 32 -! registerWriteData [31:0] $end
    $scope module EXMEM_stage $end
     $var wire 1 3! clk $end
     $var wire 1 4! resetN $end
     $var wire 2 %! memoryOpSize_EX [1:0] $end
     $var wire 1 = unsignedLoad_EX $end
     $var wire 1 &! storeLoad_EX $end
     $var wire 32 + address_EX [31:0] $end
     $var wire 5 $! rd_EX [4:0] $end
     $var wire 1 #! writeEnable_EX $end
     $var wire 2 4 writeSource_EX [1:0] $end
     $var wire 32 9 instructionAddress_EX [31:0] $end
     $var wire 32 ( memWriteData_EX [31:0] $end
     $var wire 32 l memWriteData_MEM [31:0] $end
     $var wire 32 D instructionAddress_MEM [31:0] $end
     $var wire 2 B writeSource_MEM [1:0] $end
     $var wire 1 '! writeEnable_MEM $end
     $var wire 5 (! rd_MEM [4:0] $end
     $var wire 2 )! memoryOpSize_MEM [1:0] $end
     $var wire 1 C unsignedLoad_MEM $end
     $var wire 1 *! storeLoad_MEM $end
     $var wire 32 k address_MEM [31:0] $end
    $upscope $end
    $scope module IDEX_stage $end
     $var wire 1 3! clk $end
     $var wire 1 4! resetN $end
     $var wire 1 2 IDEX_delay $end
     $var wire 32 7! read1Data_ID [31:0] $end
     $var wire 32 8! read2Data_ID [31:0] $end
     $var wire 5 q rs1_ID [4:0] $end
     $var wire 5 r rs2_ID [4:0] $end
     $var wire 5 s rd_ID [4:0] $end
     $var wire 32 3 instructionAddress_ID [31:0] $end
     $var wire 32 "! immediate_ID [31:0] $end
     $var wire 3 u xaluOp_ID [2:0] $end
     $var wire 1 t xaluArithmeticFlag_ID $end
     $var wire 2 y memoryOpSize_ID [1:0] $end
     $var wire 1 z unsignedLoad_ID $end
     $var wire 1 { storeLoad_ID $end
     $var wire 1 .! writeEnable_ID $end
     $var wire 2 !! writeSource_ID [1:0] $end
     $var wire 1 w pcXaluPrimary_ID $end
     $var wire 1 x immediateXaluSecondary_ID $end
     $var wire 1 v zeroXaluPrimary_ID $end
     $var wire 2 | branchOp_ID [1:0] $end
     $var wire 1 } branchNegate_ID $end
     $var wire 1 ~ jump_ID $end
     $var wire 2 A branchOp_EX [1:0] $end
     $var wire 1 ?! branchNegate_EX $end
     $var wire 1 >! jump_EX $end
     $var wire 1 @ zeroXaluPrimary_EX $end
     $var wire 1 ? immediateXaluSecondary_EX $end
     $var wire 2 4 writeSource_EX [1:0] $end
     $var wire 1 #! writeEnable_EX $end
     $var wire 32 5 read1Data_EX [31:0] $end
     $var wire 32 6 read2Data_EX [31:0] $end
     $var wire 5 7 rs1_EX [4:0] $end
     $var wire 5 8 rs2_EX [4:0] $end
     $var wire 5 $! rd_EX [4:0] $end
     $var wire 32 9 instructionAddress_EX [31:0] $end
     $var wire 32 : immediate_EX [31:0] $end
     $var wire 3 ; xaluOp_EX [2:0] $end
     $var wire 1 < xaluArithmeticFlag_EX $end
     $var wire 2 %! memoryOpSize_EX [1:0] $end
     $var wire 1 = unsignedLoad_EX $end
     $var wire 1 &! storeLoad_EX $end
     $var wire 1 > pcXaluPrimary_EX $end
    $upscope $end
    $scope module IFID_stage $end
     $var wire 1 3! clk $end
     $var wire 1 4! resetN $end
     $var wire 1 1 IFID_write $end
     $var wire 32 / instructionAddress_IF [31:0] $end
     $var wire 32 . instructions_IF [31:0] $end
     $var wire 32 p instructions_ID [31:0] $end
     $var wire 32 3 instructionAddress_ID [31:0] $end
    $upscope $end
    $scope module MEMWB_stage $end
     $var wire 1 3! clk $end
     $var wire 1 4! resetN $end
     $var wire 5 (! rd_MEM [4:0] $end
     $var wire 32 k address_MEM [31:0] $end
     $var wire 1 '! writeEnable_MEM $end
     $var wire 32 9! memToRegData_MEM [31:0] $end
     $var wire 2 B writeSource_MEM [1:0] $end
     $var wire 32 D instructionAddress_MEM [31:0] $end
     $var wire 32 G instructionAddress_WB [31:0] $end
     $var wire 2 H writeSource_WB [1:0] $end
     $var wire 1 +! writeEnable_WB $end
     $var wire 32 E address_WB [31:0] $end
     $var wire 5 ,! rd_WB [4:0] $end
     $var wire 32 F memToRegData_WB [31:0] $end
    $upscope $end
    $scope module forwardingUnit $end
     $var wire 1 4! resetN $end
     $var wire 5 7 rs1 [4:0] $end
     $var wire 5 8 rs2 [4:0] $end
     $var wire 5 (! EXMEM_rd [4:0] $end
     $var wire 1 '! EXMEM_RegWrite $end
     $var wire 5 ,! MEMWB_rd [4:0] $end
     $var wire 1 +! MEMWB_RegWrite $end
     $var wire 2 # ForwardA [1:0] $end
     $var wire 2 $ ForwardB [1:0] $end
    $upscope $end
    $scope module hazardDetection $end
     $var wire 1 3! clk $end
     $var wire 1 4! resetN $end
     $var wire 5 q IFID_r1 [4:0] $end
     $var wire 5 r IFID_r2 [4:0] $end
     $var wire 5 $! IDEX_rd [4:0] $end
     $var wire 1 /! IDEX_memread $end
     $var wire 32 . instruction_IF [31:0] $end
     $var wire 1 0 PC_update $end
     $var wire 1 1 IFID_write $end
     $var wire 1 2 IDEX_delay $end
     $var wire 2 I loadCounter [1:0] $end
     $var wire 1 J loadInstruction $end
     $var wire 7 K opcode [6:0] $end
    $upscope $end
    $scope module immediateGenerator $end
     $var wire 32 p instruction [31:0] $end
     $var wire 32 "! immediate [31:0] $end
     $var wire 7 0! opcode [6:0] $end
    $upscope $end
    $scope module instructionDecoder $end
     $var wire 32 p instruction [31:0] $end
     $var wire 5 q rs1 [4:0] $end
     $var wire 5 r rs2 [4:0] $end
     $var wire 5 s rd [4:0] $end
     $var wire 1 t xaluArithmeticFlag $end
     $var wire 3 u xaluOp [2:0] $end
     $var wire 1 v zeroXaluPrimary $end
     $var wire 1 w pcXaluPrimary $end
     $var wire 1 x immediateXaluSecondary $end
     $var wire 2 y memoryOpSize [1:0] $end
     $var wire 1 z unsignedLoad $end
     $var wire 1 { storeLoad $end
     $var wire 2 | branchOp [1:0] $end
     $var wire 1 } branchNegate $end
     $var wire 1 ~ jump $end
     $var wire 2 !! writeSource [1:0] $end
     $var wire 7 0! opcode [6:0] $end
     $var wire 3 1! funct3 [2:0] $end
     $var wire 1 2! funct7_5 $end
    $upscope $end
    $scope module lsu $end
     $var wire 2 )! memoryOpSize [1:0] $end
     $var wire 1 C unsignedLoad $end
     $var wire 1 *! storeLoad $end
     $var wire 32 k address [31:0] $end
     $var wire 32 6! readData [31:0] $end
     $var wire 1 n memWrite $end
     $var wire 1 m memRead $end
     $var wire 3 o memSize [2:0] $end
     $var wire 32 9! memToRegData [31:0] $end
    $upscope $end
    $scope module programCounter $end
     $var wire 32 A! RESET_VALUE [31:0] $end
     $var wire 1 3! clk $end
     $var wire 1 4! resetN $end
     $var wire 1 :! enable $end
     $var wire 1 , load $end
     $var wire 32 + addrLoad [31:0] $end
     $var wire 32 / addrOut [31:0] $end
     $var wire 32 B! INCREMENT [31:0] $end
     $var wire 32 ;! addrNext [31:0] $end
    $upscope $end
    $scope module xAlu $end
     $var wire 32 ) inputPrimary [31:0] $end
     $var wire 32 * inputSecondary [31:0] $end
     $var wire 3 ; operation [2:0] $end
     $var wire 1 < arithmeticFlag $end
     $var wire 32 + result [31:0] $end
     $var wire 5 - shamt [4:0] $end
    $upscope $end
    $scope module xRegisterFile $end
     $var wire 1 3! clk $end
     $var wire 1 <! writeEnable $end
     $var wire 5 q read1Reg [4:0] $end
     $var wire 5 r read2Reg [4:0] $end
     $var wire 5 ,! writeReg [4:0] $end
     $var wire 32 -! writeData [31:0] $end
     $var wire 32 7! read1Data [31:0] $end
     $var wire 32 8! read2Data [31:0] $end
     $var wire 32 L registers[1] [31:0] $end
     $var wire 32 M registers[2] [31:0] $end
     $var wire 32 N registers[3] [31:0] $end
     $var wire 32 O registers[4] [31:0] $end
     $var wire 32 P registers[5] [31:0] $end
     $var wire 32 Q registers[6] [31:0] $end
     $var wire 32 R registers[7] [31:0] $end
     $var wire 32 S registers[8] [31:0] $end
     $var wire 32 T registers[9] [31:0] $end
     $var wire 32 U registers[10] [31:0] $end
     $var wire 32 V registers[11] [31:0] $end
     $var wire 32 W registers[12] [31:0] $end
     $var wire 32 X registers[13] [31:0] $end
     $var wire 32 Y registers[14] [31:0] $end
     $var wire 32 Z registers[15] [31:0] $end
     $var wire 32 [ registers[16] [31:0] $end
     $var wire 32 \ registers[17] [31:0] $end
     $var wire 32 ] registers[18] [31:0] $end
     $var wire 32 ^ registers[19] [31:0] $end
     $var wire 32 _ registers[20] [31:0] $end
     $var wire 32 ` registers[21] [31:0] $end
     $var wire 32 a registers[22] [31:0] $end
     $var wire 32 b registers[23] [31:0] $end
     $var wire 32 c registers[24] [31:0] $end
     $var wire 32 d registers[25] [31:0] $end
     $var wire 32 e registers[26] [31:0] $end
     $var wire 32 f registers[27] [31:0] $end
     $var wire 32 g registers[28] [31:0] $end
     $var wire 32 h registers[29] [31:0] $end
     $var wire 32 i registers[30] [31:0] $end
     $var wire 32 j registers[31] [31:0] $end
    $upscope $end
   $upscope $end
   $scope module unnamedblk1 $end
    $var wire 32 =! i [31:0] $end
   $upscope $end
  $upscope $end
 $upscope $end
$enddefinitions $end


#0
b00 #
b00 $
1%
1&
b00000000000000000000000000000000 '
b00000000000000000000000000000000 (
b00000000000000000000000000000000 )
b00000000000000000000000000000000 *
b00000000000000000000000000000000 +
1,
b00000 -
b00000000010100000000000010010011 .
b00000000000000000000000000000000 /
00
01
02
b00000000000000000000000000000000 3
b00 4
b00000000000000000000000000000000 5
b00000000000000000000000000000000 6
b00000 7
b00000 8
b00000000000000000000000000000000 9
b00000000000000000000000000000000 :
b000 ;
0<
0=
0>
0?
0@
b00 A
b00 B
0C
b00000000000000000000000000000000 D
b00000000000000000000000000000000 E
b00000000000000000000000000000000 F
b00000000000000000000000000000000 G
b00 H
b00 I
0J
b0010011 K
b00000000000000000000000000000000 L
b00000000000000000000000000000000 M
b00000000000000000000000000000000 N
b00000000000000000000000000000000 O
b00000000000000000000000000000000 P
b00000000000000000000000000000000 Q
b00000000000000000000000000000000 R
b00000000000000000000000000000000 S
b00000000000000000000000000000000 T
b00000000000000000000000000000000 U
b00000000000000000000000000000000 V
b00000000000000000000000000000000 W
b00000000000000000000000000000000 X
b00000000000000000000000000000000 Y
b00000000000000000000000000000000 Z
b00000000000000000000000000000000 [
b00000000000000000000000000000000 \
b00000000000000000000000000000000 ]
b00000000000000000000000000000000 ^
b00000000000000000000000000000000 _
b00000000000000000000000000000000 `
b00000000000000000000000000000000 a
b00000000000000000000000000000000 b
b00000000000000000000000000000000 c
b00000000000000000000000000000000 d
b00000000000000000000000000000000 e
b00000000000000000000000000000000 f
b00000000000000000000000000000000 g
b00000000000000000000000000000000 h
b00000000000000000000000000000000 i
b00000000000000000000000000000000 j
b00000000000000000000000000000000 k
b00000000000000000000000000000000 l
1m
0n
b000 o
b00000000000000000000000000000000 p
b00000 q
b00000 r
b00000 s
0t
b000 u
0v
0w
0x
b11 y
0z
0{
b01 |
0}
0~
b00 !!
b00000000000000000000000000000000 "!
0#!
b00000 $!
b00 %!
0&!
0'!
b00000 (!
b00 )!
0*!
0+!
b00000 ,!
b00000000000000000000000000000000 -!
0.!
1/!
b0000000 0!
b000 1!
02!
03!
04!
05!
b00000000000000000000000000000000 6!
b00000000000000000000000000000000 7!
b00000000000000000000000000000000 8!
b00000000000000000000000000000000 9!
0:!
b00000000000000000000000000000000 ;!
0<!
b00000000000000000000000100000000 =!
0>!
0?!
b00000000000000000000000000000000 @!
b00000000000000000000000000000000 A!
b00000000000000000000000000000100 B!
b00000000000000000000000000100000 C!
b00000000000000000000000000001000 D!
b00000000000000000000000000010000 E!
#5000
0%
0&
0,
10
11
b01 A
0m
b111 o
b11 %!
b11 )!
0/!
13!
1:!
b00000000000000000000000000000100 ;!
#10000
03!
#15000
b00000000101000000000000100010011 .
b00000000000000000000000000000100 /
b00000000010100000000000010010011 p
b00101 r
b00001 s
1x
b11 !!
b00000000000000000000000000000101 "!
1.!
b0010011 0!
13!
14!
b00000000000000000000000000001000 ;!
#20000
03!
#25000
b00000000000000000000000000000101 *
b00000000000000000000000000000101 +
b00101 -
b00000000001000001000000110110011 .
b00000000000000000000000000001000 /
b00000000000000000000000000000100 3
b11 4
b00101 8
b00000000000000000000000000000101 :
1?
b0110011 K
b00000000101000000000000100010011 p
b01010 r
b00010 s
b00000000000000000000000000001010 "!
1#!
b00001 $!
13!
b00000000000000000000000000001100 ;!
#30000
03!
#35000
b00000000000000000000000000001010 *
b00000000000000000000000000001010 +
b01010 -
b00000000001100000010000000100011 .
b00000000000000000000000000001100 /
b00000000000000000000000000001000 3
b01010 8
b00000000000000000000000000000100 9
b00000000000000000000000000001010 :
b11 B
b0100011 K
b00000000000000000000000000000101 k
b00000000001000001000000110110011 p
b00001 q
b00010 r
b00011 s
0x
b00000000000000000000000000000000 "!
b00010 $!
1'!
b00001 (!
b0110011 0!
13!
b00000000000000000000000000010000 ;!
#40000
03!
#45000
b01 #
b10 $
b00000000000000000000000000000101 '
b00000000000000000000000000001010 (
b00000000000000000000000000000101 )
b00000000000000000000000000001111 +
b00000000000000000010001000000011 .
b00000000000000000000000000010000 /
b00000000000000000000000000001100 3
b00001 7
b00010 8
b00000000000000000000000000001000 9
b00000000000000000000000000000000 :
0?
b00000000000000000000000000000100 D
b00000000000000000000000000000101 E
b11 H
1J
b0000011 K
b00000000000000000000000000001010 k
b00000000001100000010000000100011 p
b00000 q
b00011 r
b00000 s
1x
b10 y
1{
b00 !!
b00011 $!
b00010 (!
1+!
b00001 ,!
b00000000000000000000000000000101 -!
0.!
b0100011 0!
b010 1!
13!
b00000000000000000000000000010100 ;!
1<!
#50000
b00000000000000000000000000000101 L
03!
#55000
b00 #
b00000000000000000000000000000000 '
b00000000000000000000000000001111 (
b00000000000000000000000000000000 )
b00000000000000000000000000000000 *
b00000000000000000000000000000000 +
b00000 -
b00000000000000000000000000010011 .
b00000000000000000000000000010100 /
b00000000000000000000000000010000 3
b00 4
b00000 7
b00011 8
b00000000000000000000000000001100 9
1?
b00000000000000000000000000001000 D
b00000000000000000000000000001010 E
b00000000000000000000000000000100 G
0J
b0010011 K
b00000000000000000000000000001111 k
b00000000000000000000000000001010 l
b00000000000000000010001000000011 p
b00000 r
b00100 s
0{
b10 !!
0#!
b00000 $!
b10 %!
1&!
b00011 (!
b00010 ,!
b00000000000000000000000000001010 -!
1.!
b0000011 0!
13!
b00000000000000000000000000011000 ;!
#60000
b00000000000000000000000000001010 M
03!
#65000
b00 $
b00000000000000000000000000000000 (
b00000000000000000000000000011000 /
b00000000000000000000000000010100 3
b10 4
b00000 8
b00000000000000000000000000010000 9
b00 B
b00000000000000000000000000001100 D
b00000000000000000000000000001111 E
b00000000000000000000000000001000 G
b00000000000000000000000000000000 k
b00000000000000000000000000001111 l
1n
b010 o
b00000000000000000000000000010011 p
b00000 s
b11 y
b11 !!
1#!
b00100 $!
0&!
0'!
b00000 (!
b10 )!
1*!
b00011 ,!
b00000000000000000000000000001111 -!
1/!
b0010011 0!
b000 1!
13!
b00000000000000000000000000011100 ;!
#70000
b00000000000000000000000000001111 N
03!
#75000
b00000000000000000000000000011100 /
b00000000000000000000000000011000 3
b11 4
b00000000000000000000000000010100 9
b10 B
b00000000000000000000000000010000 D
b00000000000000000000000000000000 E
b00000000000000000000000000001100 G
b00 H
b00000000000000000000000000000000 l
1m
0n
b00000 $!
b11 %!
1'!
b00100 (!
0*!
0+!
b00000 ,!
b00000000000000000000000000000000 -!
0/!
13!
b00000000000000000000000000001111 6!
b00000000000000000000000000001111 9!
b00000000000000000000000000100000 ;!
0<!
#80000
03!
#85000
b10 #
b10 $
b00000000000000000000000000100000 /
b00000000000000000000000000011100 3
b00000000000000000000000000011000 9
b11 B
b00000000000000000000000000010100 D
b00000000000000000000000000001111 F
b00000000000000000000000000010000 G
b10 H
0m
b111 o
b00000 (!
b11 )!
1+!
b00100 ,!
b00000000000000000000000000001111 -!
13!
b00000000000000000000000000000000 6!
b00000000000000000000000000000000 9!
b00000000000000000000000000100100 ;!
1<!
#90000
b00000000000000000000000000001111 O
03!
#95000
b00000000000000000000000000100100 /
b00000000000000000000000000100000 3
b00000000000000000000000000011100 9
b00000000000000000000000000011000 D
b00000000000000000000000000000000 F
b00000000000000000000000000010100 G
b11 H
b00000 ,!
b00000000000000000000000000000000 -!
13!
b00000000000000000000000000101000 ;!
#100000
03!
#105000
b00000000000000000000000000000000 .
b00000000000000000000000000101000 /
b00000000000000000000000000100100 3
b00000000000000000000000000100000 9
b00000000000000000000000000011100 D
b00000000000000000000000000011000 G
b0000000 K
13!
b00000000000000000000000000101100 ;!
#110000
03!
#115000
b00000000000000000000000000101100 /
b00000000000000000000000000101000 3
b00000000000000000000000000100100 9
b00000000000000000000000000100000 D
b00000000000000000000000000011100 G
b00000000000000000000000000000000 p
0x
b00 !!
0.!
b0000000 0!
13!
b00000000000000000000000000110000 ;!
#120000
03!
#125000
b00000000000000000000000000110000 /
b00000000000000000000000000101100 3
b00 4
b00000000000000000000000000101000 9
0?
b00000000000000000000000000100100 D
b00000000000000000000000000100000 G
0#!
13!
b00000000000000000000000000110100 ;!
#130000
03!
#135000
b01 #
b01 $
b00000000000000000000000000110100 /
b00000000000000000000000000110000 3
b00000000000000000000000000101100 9
b00 B
b00000000000000000000000000101000 D
b00000000000000000000000000100100 G
0'!
13!
b00000000000000000000000000111000 ;!
#140000
03!
#145000
b00 #
b00 $
b00000000000000000000000000111000 /
b00000000000000000000000000110100 3
b00000000000000000000000000110000 9
b00000000000000000000000000101100 D
b00000000000000000000000000101000 G
b00 H
0+!
13!
b00000000000000000000000000111100 ;!
0<!
#150000
03!
#155000
b00000000000000000000000000111100 /
b00000000000000000000000000111000 3
b00000000000000000000000000110100 9
b00000000000000000000000000110000 D
b00000000000000000000000000101100 G
13!
b00000000000000000000000001000000 ;!
#160000
03!
#165000
b00000000000000000000000001000000 /
b00000000000000000000000000111100 3
b00000000000000000000000000111000 9
b00000000000000000000000000110100 D
b00000000000000000000000000110000 G
13!
b00000000000000000000000001000100 ;!
#170000
03!
#175000
b00000000000000000000000001000100 /
b00000000000000000000000001000000 3
b00000000000000000000000000111100 9
b00000000000000000000000000111000 D
b00000000000000000000000000110100 G
13!
b00000000000000000000000001001000 ;!
#180000
03!
#185000
b00000000000000000000000001001000 /
b00000000000000000000000001000100 3
b00000000000000000000000001000000 9
b00000000000000000000000000111100 D
b00000000000000000000000000111000 G
13!
b00000000000000000000000001001100 ;!
#190000
03!
#195000
b00000000000000000000000001001100 /
b00000000000000000000000001001000 3
b00000000000000000000000001000100 9
b00000000000000000000000001000000 D
b00000000000000000000000000111100 G
13!
b00000000000000000000000001010000 ;!
#200000
03!
#205000
b00000000000000000000000001010000 /
b00000000000000000000000001001100 3
b00000000000000000000000001001000 9
b00000000000000000000000001000100 D
b00000000000000000000000001000000 G
13!
b00000000000000000000000001010100 ;!
#210000
03!
#215000
b00000000000000000000000001010100 /
b00000000000000000000000001010000 3
b00000000000000000000000001001100 9
b00000000000000000000000001001000 D
b00000000000000000000000001000100 G
13!
b00000000000000000000000001011000 ;!
