core_stress_test.vcd
$version Generated by VerilatedVcd $end
$timescale 1ps $end
 $scope module TOP $end
  $scope module rvDefs $end
   $var wire 32 S! XLEN [31:0] $end
   $var wire 32 S! XREG_COUNT [31:0] $end
   $var wire 32 S! IALIGN [31:0] $end
   $var wire 32 S! ILEN [31:0] $end
   $var wire 32 T! BYTE_BITS [31:0] $end
   $var wire 32 U! HALFWORD_BITS [31:0] $end
   $var wire 32 S! WORD_BITS [31:0] $end
  $upscope $end
  $scope module tb $end
   $var wire 1 C! clk $end
   $var wire 1 D! resetN $end
   $var wire 1 E! stall $end
   $var wire 32 5 instruction [31:0] $end
   $var wire 32 6 instructionAddress [31:0] $end
   $var wire 32 z memAddress [31:0] $end
   $var wire 32 F! memReadData [31:0] $end
   $var wire 32 { memWriteData [31:0] $end
   $var wire 1 | memRead $end
   $var wire 1 } memWrite $end
   $var wire 3 ~ memSize [2:0] $end
   $scope module dut $end
    $var wire 1 C! clk $end
    $var wire 1 D! resetN $end
    $var wire 32 5 instruction [31:0] $end
    $var wire 32 6 instructionAddress [31:0] $end
    $var wire 32 z memAddress [31:0] $end
    $var wire 32 F! memReadData [31:0] $end
    $var wire 32 { memWriteData [31:0] $end
    $var wire 1 | memRead $end
    $var wire 1 } memWrite $end
    $var wire 3 ~ memSize [2:0] $end
    $var wire 1 E! stall $end
    $var wire 1 # PC_update $end
    $var wire 1 $ IFID_write $end
    $var wire 1 % IDEX_delay $end
    $var wire 2 & ForwardA [1:0] $end
    $var wire 2 ' ForwardB [1:0] $end
    $var wire 2 ( ForwardID_A [1:0] $end
    $var wire 1 ) branchPass $end
    $var wire 1 * branchTaken_EX $end
    $var wire 1 7 branchPrediction $end
    $var wire 1 O! jump_EX $end
    $var wire 1 + pipelineFlush $end
    $var wire 32 G! branchAddress [31:0] $end
    $var wire 1 H! loadPCValue $end
    $var wire 32 !! instruction_ID [31:0] $end
    $var wire 32 8 instructionAddress_ID [31:0] $end
    $var wire 5 "! rs1 [4:0] $end
    $var wire 5 #! rs2 [4:0] $end
    $var wire 5 $! rd [4:0] $end
    $var wire 1 %! xaluArithmeticFlag $end
    $var wire 3 &! xaluOp [2:0] $end
    $var wire 1 '! zeroXaluPrimary $end
    $var wire 1 (! pcXaluPrimary $end
    $var wire 1 )! immediateXaluSecondary $end
    $var wire 2 *! memoryOpSize [1:0] $end
    $var wire 1 +! unsignedLoad $end
    $var wire 1 ,! storeLoad $end
    $var wire 2 -! branchOp [1:0] $end
    $var wire 1 .! branchNegate $end
    $var wire 1 /! jump $end
    $var wire 2 0! writeSource [1:0] $end
    $var wire 32 1! immediate [31:0] $end
    $var wire 32 I! read1Data [31:0] $end
    $var wire 32 J! read2Data [31:0] $end
    $var wire 2 9 writeSource_EX [1:0] $end
    $var wire 1 2! writeEnable_EX $end
    $var wire 32 : read1Data_EX [31:0] $end
    $var wire 32 ; read2Data_EX [31:0] $end
    $var wire 5 < rs1_EX [4:0] $end
    $var wire 5 = rs2_EX [4:0] $end
    $var wire 5 3! rd_EX [4:0] $end
    $var wire 32 > instructionAddress_EX [31:0] $end
    $var wire 32 ? immediate_EX [31:0] $end
    $var wire 3 @ xaluOp_EX [2:0] $end
    $var wire 1 A xaluArithmeticFlag_EX $end
    $var wire 2 4! memoryOpSize_EX [1:0] $end
    $var wire 1 B unsignedLoad_EX $end
    $var wire 1 5! storeLoad_EX $end
    $var wire 1 C pcXaluPrimary_EX $end
    $var wire 1 D immediateXaluSecondary_EX $end
    $var wire 1 E zeroXaluPrimary_EX $end
    $var wire 2 F branchOp_EX [1:0] $end
    $var wire 1 G branchNegate_EX $end
    $var wire 1 O! jump_EX_reg $end
    $var wire 32 H instruction_EX [31:0] $end
    $var wire 1 I branchPrediction_EX $end
    $var wire 32 , fwd_rs1 [31:0] $end
    $var wire 32 - fwd_rs2 [31:0] $end
    $var wire 32 K! branchTargetJALR [31:0] $end
    $var wire 32 . xalu_primary [31:0] $end
    $var wire 32 / xalu_secondary [31:0] $end
    $var wire 32 0 aluResult [31:0] $end
    $var wire 7 J opcodeBranchResolution [6:0] $end
    $var wire 1 + branchCorrection $end
    $var wire 32 1 branchCorrectionAddress [31:0] $end
    $var wire 1 2 branchMispredicted_EX $end
    $var wire 2 K writeSource_MEM [1:0] $end
    $var wire 1 6! writeEnable_MEM $end
    $var wire 5 7! rd_MEM [4:0] $end
    $var wire 2 8! memoryOpSize_MEM [1:0] $end
    $var wire 1 L unsignedLoad_MEM $end
    $var wire 1 9! storeLoad_MEM $end
    $var wire 32 z address_MEM [31:0] $end
    $var wire 32 M instructionAddress_MEM [31:0] $end
    $var wire 32 P! memWriteData_MEM [31:0] $end
    $var wire 32 L! memToRegData [31:0] $end
    $var wire 1 :! writeEnable_WB $end
    $var wire 32 N address_WB [31:0] $end
    $var wire 5 ;! rd_WB [4:0] $end
    $var wire 32 O memToRegData_WB [31:0] $end
    $var wire 32 P instructionAddress_WB [31:0] $end
    $var wire 2 Q writeSource_WB [1:0] $end
    $var wire 32 <! registerWriteData [31:0] $end
    $scope module EXMEM_stage $end
     $var wire 1 C! clk $end
     $var wire 1 D! resetN $end
     $var wire 2 4! memoryOpSize_EX [1:0] $end
     $var wire 1 B unsignedLoad_EX $end
     $var wire 1 5! storeLoad_EX $end
     $var wire 32 0 address_EX [31:0] $end
     $var wire 5 3! rd_EX [4:0] $end
     $var wire 1 2! writeEnable_EX $end
     $var wire 2 9 writeSource_EX [1:0] $end
     $var wire 32 > instructionAddress_EX [31:0] $end
     $var wire 32 - memWriteData_EX [31:0] $end
     $var wire 32 { memWriteData_MEM [31:0] $end
     $var wire 32 M instructionAddress_MEM [31:0] $end
     $var wire 2 K writeSource_MEM [1:0] $end
     $var wire 1 6! writeEnable_MEM $end
     $var wire 5 7! rd_MEM [4:0] $end
     $var wire 2 8! memoryOpSize_MEM [1:0] $end
     $var wire 1 L unsignedLoad_MEM $end
     $var wire 1 9! storeLoad_MEM $end
     $var wire 32 z address_MEM [31:0] $end
    $upscope $end
    $scope module IDEX_stage $end
     $var wire 1 C! clk $end
     $var wire 1 D! resetN $end
     $var wire 1 + flush $end
     $var wire 1 % IDEX_delay $end
     $var wire 32 I! read1Data_ID [31:0] $end
     $var wire 32 J! read2Data_ID [31:0] $end
     $var wire 5 "! rs1_ID [4:0] $end
     $var wire 5 #! rs2_ID [4:0] $end
     $var wire 5 $! rd_ID [4:0] $end
     $var wire 32 8 instructionAddress_ID [31:0] $end
     $var wire 32 1! immediate_ID [31:0] $end
     $var wire 3 &! xaluOp_ID [2:0] $end
     $var wire 1 %! xaluArithmeticFlag_ID $end
     $var wire 2 *! memoryOpSize_ID [1:0] $end
     $var wire 1 +! unsignedLoad_ID $end
     $var wire 1 ,! storeLoad_ID $end
     $var wire 1 =! writeEnable_ID $end
     $var wire 2 0! writeSource_ID [1:0] $end
     $var wire 1 (! pcXaluPrimary_ID $end
     $var wire 1 )! immediateXaluSecondary_ID $end
     $var wire 1 '! zeroXaluPrimary_ID $end
     $var wire 2 -! branchOp_ID [1:0] $end
     $var wire 1 .! branchNegate_ID $end
     $var wire 32 !! instruction_ID [31:0] $end
     $var wire 1 /! jump_ID $end
     $var wire 1 7 branchPrediction_ID $end
     $var wire 1 I branchPrediction_EX $end
     $var wire 2 F branchOp_EX [1:0] $end
     $var wire 1 G branchNegate_EX $end
     $var wire 1 O! jump_EX $end
     $var wire 1 E zeroXaluPrimary_EX $end
     $var wire 1 D immediateXaluSecondary_EX $end
     $var wire 2 9 writeSource_EX [1:0] $end
     $var wire 1 2! writeEnable_EX $end
     $var wire 32 : read1Data_EX [31:0] $end
     $var wire 32 ; read2Data_EX [31:0] $end
     $var wire 5 < rs1_EX [4:0] $end
     $var wire 5 = rs2_EX [4:0] $end
     $var wire 5 3! rd_EX [4:0] $end
     $var wire 32 > instructionAddress_EX [31:0] $end
     $var wire 32 ? immediate_EX [31:0] $end
     $var wire 3 @ xaluOp_EX [2:0] $end
     $var wire 1 A xaluArithmeticFlag_EX $end
     $var wire 2 4! memoryOpSize_EX [1:0] $end
     $var wire 1 B unsignedLoad_EX $end
     $var wire 1 5! storeLoad_EX $end
     $var wire 1 C pcXaluPrimary_EX $end
     $var wire 32 H instruction_EX [31:0] $end
    $upscope $end
    $scope module IFID_stage $end
     $var wire 1 C! clk $end
     $var wire 1 D! resetN $end
     $var wire 1 $ IFID_write $end
     $var wire 1 + flush $end
     $var wire 32 6 instructionAddress_IF [31:0] $end
     $var wire 32 5 instructions_IF [31:0] $end
     $var wire 32 !! instructions_ID [31:0] $end
     $var wire 32 8 instructionAddress_ID [31:0] $end
    $upscope $end
    $scope module MEMWB_stage $end
     $var wire 1 C! clk $end
     $var wire 1 D! resetN $end
     $var wire 5 7! rd_MEM [4:0] $end
     $var wire 32 z address_MEM [31:0] $end
     $var wire 1 6! writeEnable_MEM $end
     $var wire 32 L! memToRegData_MEM [31:0] $end
     $var wire 2 K writeSource_MEM [1:0] $end
     $var wire 32 M instructionAddress_MEM [31:0] $end
     $var wire 32 P instructionAddress_WB [31:0] $end
     $var wire 2 Q writeSource_WB [1:0] $end
     $var wire 1 :! writeEnable_WB $end
     $var wire 32 N address_WB [31:0] $end
     $var wire 5 ;! rd_WB [4:0] $end
     $var wire 32 O memToRegData_WB [31:0] $end
    $upscope $end
    $scope module branchAddresser $end
     $var wire 32 8 PCAddress [31:0] $end
     $var wire 32 1! offset [31:0] $end
     $var wire 32 K! branchTargetJALR [31:0] $end
     $var wire 7 >! opcode [6:0] $end
     $var wire 32 G! BranchAddress [31:0] $end
    $upscope $end
    $scope module branchPredictor $end
     $var wire 1 C! clk $end
     $var wire 1 D! resetN $end
     $var wire 1 * branchTaken $end
     $var wire 1 ?! branchRequested $end
     $var wire 1 7 branchPrediction $end
     $var wire 1 + pipelineFlush $end
     $var wire 2 R saturationCounter [1:0] $end
     $var wire 1 S req_delay1 $end
     $var wire 1 T req_delay2 $end
     $var wire 1 U branchPrediction_value $end
     $var wire 1 V branchPrediction_delay1 $end
     $var wire 1 W branchPrediction_delay2 $end
    $upscope $end
    $scope module forwardingUnit $end
     $var wire 1 D! resetN $end
     $var wire 5 < rs1 [4:0] $end
     $var wire 5 = rs2 [4:0] $end
     $var wire 5 7! EXMEM_rd [4:0] $end
     $var wire 1 6! EXMEM_RegWrite $end
     $var wire 5 ;! MEMWB_rd [4:0] $end
     $var wire 1 :! MEMWB_RegWrite $end
     $var wire 5 "! ID_rs1 [4:0] $end
     $var wire 2 & ForwardA [1:0] $end
     $var wire 2 ' ForwardB [1:0] $end
     $var wire 2 ( ForwardID_A [1:0] $end
    $upscope $end
    $scope module hazardDetection $end
     $var wire 1 C! clk $end
     $var wire 1 D! resetN $end
     $var wire 5 "! IDEX_r1 [4:0] $end
     $var wire 5 #! IDEX_r2 [4:0] $end
     $var wire 5 3! EXMEM_rd [4:0] $end
     $var wire 1 @! IDEX_memread $end
     $var wire 32 5 instruction_IF [31:0] $end
     $var wire 1 # PC_update $end
     $var wire 1 $ IFID_write $end
     $var wire 1 % IDEX_delay $end
     $var wire 2 X loadCounter [1:0] $end
     $var wire 1 Y loadInstruction $end
     $var wire 7 Z opcode [6:0] $end
    $upscope $end
    $scope module immediateGenerator $end
     $var wire 32 !! instruction [31:0] $end
     $var wire 32 1! immediate [31:0] $end
     $var wire 7 >! opcode [6:0] $end
    $upscope $end
    $scope module instructionDecoder $end
     $var wire 32 !! instruction [31:0] $end
     $var wire 5 "! rs1 [4:0] $end
     $var wire 5 #! rs2 [4:0] $end
     $var wire 5 $! rd [4:0] $end
     $var wire 1 %! xaluArithmeticFlag $end
     $var wire 3 &! xaluOp [2:0] $end
     $var wire 1 '! zeroXaluPrimary $end
     $var wire 1 (! pcXaluPrimary $end
     $var wire 1 )! immediateXaluSecondary $end
     $var wire 2 *! memoryOpSize [1:0] $end
     $var wire 1 +! unsignedLoad $end
     $var wire 1 ,! storeLoad $end
     $var wire 2 -! branchOp [1:0] $end
     $var wire 1 .! branchNegate $end
     $var wire 1 /! jump $end
     $var wire 2 0! writeSource [1:0] $end
     $var wire 7 >! opcode [6:0] $end
     $var wire 3 A! funct3 [2:0] $end
     $var wire 1 B! funct7_5 $end
    $upscope $end
    $scope module lsu $end
     $var wire 2 8! memoryOpSize [1:0] $end
     $var wire 1 L unsignedLoad $end
     $var wire 1 9! storeLoad $end
     $var wire 32 z address [31:0] $end
     $var wire 32 F! readData [31:0] $end
     $var wire 1 } memWrite $end
     $var wire 1 | memRead $end
     $var wire 3 ~ memSize [2:0] $end
     $var wire 32 L! memToRegData [31:0] $end
    $upscope $end
    $scope module programCounter $end
     $var wire 32 Q! RESET_VALUE [31:0] $end
     $var wire 1 C! clk $end
     $var wire 1 D! resetN $end
     $var wire 1 3 enable $end
     $var wire 1 H! branchPrediction $end
     $var wire 1 + branchCorrection $end
     $var wire 32 G! addrLoad [31:0] $end
     $var wire 32 1 branchCorrectionLoad [31:0] $end
     $var wire 32 6 addrOut [31:0] $end
     $var wire 32 R! INCREMENT [31:0] $end
     $var wire 32 M! addrNext [31:0] $end
    $upscope $end
    $scope module xAlu $end
     $var wire 32 . inputPrimary [31:0] $end
     $var wire 32 / inputSecondary [31:0] $end
     $var wire 3 @ operation [2:0] $end
     $var wire 1 A arithmeticFlag $end
     $var wire 32 0 result [31:0] $end
     $var wire 5 4 shamt [4:0] $end
    $upscope $end
    $scope module xRegisterFile $end
     $var wire 1 C! clk $end
     $var wire 1 :! writeEnable $end
     $var wire 5 "! read1Reg [4:0] $end
     $var wire 5 #! read2Reg [4:0] $end
     $var wire 5 ;! writeReg [4:0] $end
     $var wire 32 <! writeData [31:0] $end
     $var wire 32 I! read1Data [31:0] $end
     $var wire 32 J! read2Data [31:0] $end
     $var wire 32 [ registers[1] [31:0] $end
     $var wire 32 \ registers[2] [31:0] $end
     $var wire 32 ] registers[3] [31:0] $end
     $var wire 32 ^ registers[4] [31:0] $end
     $var wire 32 _ registers[5] [31:0] $end
     $var wire 32 ` registers[6] [31:0] $end
     $var wire 32 a registers[7] [31:0] $end
     $var wire 32 b registers[8] [31:0] $end
     $var wire 32 c registers[9] [31:0] $end
     $var wire 32 d registers[10] [31:0] $end
     $var wire 32 e registers[11] [31:0] $end
     $var wire 32 f registers[12] [31:0] $end
     $var wire 32 g registers[13] [31:0] $end
     $var wire 32 h registers[14] [31:0] $end
     $var wire 32 i registers[15] [31:0] $end
     $var wire 32 j registers[16] [31:0] $end
     $var wire 32 k registers[17] [31:0] $end
     $var wire 32 l registers[18] [31:0] $end
     $var wire 32 m registers[19] [31:0] $end
     $var wire 32 n registers[20] [31:0] $end
     $var wire 32 o registers[21] [31:0] $end
     $var wire 32 p registers[22] [31:0] $end
     $var wire 32 q registers[23] [31:0] $end
     $var wire 32 r registers[24] [31:0] $end
     $var wire 32 s registers[25] [31:0] $end
     $var wire 32 t registers[26] [31:0] $end
     $var wire 32 u registers[27] [31:0] $end
     $var wire 32 v registers[28] [31:0] $end
     $var wire 32 w registers[29] [31:0] $end
     $var wire 32 x registers[30] [31:0] $end
     $var wire 32 y registers[31] [31:0] $end
    $upscope $end
   $upscope $end
   $scope module unnamedblk1 $end
    $var wire 32 N! i [31:0] $end
   $upscope $end
  $upscope $end
 $upscope $end
$enddefinitions $end


#0
1#
1$
0%
b00 &
b00 '
b00 (
1)
1*
1+
b00000000000000000000000000000000 ,
b00000000000000000000000000000000 -
b00000000000000000000000000000000 .
b00000000000000000000000000000000 /
b00000000000000000000000000000000 0
b00000000000000000000000000000000 1
12
13
b00000 4
b00000000101000000000001010010011 5
b00000000000000000000000000000000 6
07
b00000000000000000000000000000000 8
b00 9
b00000000000000000000000000000000 :
b00000000000000000000000000000000 ;
b00000 <
b00000 =
b00000000000000000000000000000000 >
b00000000000000000000000000000000 ?
b000 @
0A
0B
0C
0D
0E
b00 F
0G
b00000000000000000000000000000000 H
0I
b0000000 J
b00 K
0L
b00000000000000000000000000000000 M
b00000000000000000000000000000000 N
b00000000000000000000000000000000 O
b00000000000000000000000000000000 P
b00 Q
b00 R
0S
0T
0U
0V
0W
b00 X
0Y
b0010011 Z
b00000000000000000000000000000000 [
b00000000000000000000000000000000 \
b00000000000000000000000000000000 ]
b00000000000000000000000000000000 ^
b00000000000000000000000000000000 _
b00000000000000000000000000000000 `
b00000000000000000000000000000000 a
b00000000000000000000000000000000 b
b00000000000000000000000000000000 c
b00000000000000000000000000000000 d
b00000000000000000000000000000000 e
b00000000000000000000000000000000 f
b00000000000000000000000000000000 g
b00000000000000000000000000000000 h
b00000000000000000000000000000000 i
b00000000000000000000000000000000 j
b00000000000000000000000000000000 k
b00000000000000000000000000000000 l
b00000000000000000000000000000000 m
b00000000000000000000000000000000 n
b00000000000000000000000000000000 o
b00000000000000000000000000000000 p
b00000000000000000000000000000000 q
b00000000000000000000000000000000 r
b00000000000000000000000000000000 s
b00000000000000000000000000000000 t
b00000000000000000000000000000000 u
b00000000000000000000000000000000 v
b00000000000000000000000000000000 w
b00000000000000000000000000000000 x
b00000000000000000000000000000000 y
b00000000000000000000000000000000 z
b00000000000000000000000000000000 {
1|
0}
b000 ~
b00000000000000000000000000000000 !!
b00000 "!
b00000 #!
b00000 $!
0%!
b000 &!
0'!
0(!
0)!
b11 *!
0+!
0,!
b01 -!
0.!
0/!
b00 0!
b00000000000000000000000000000000 1!
02!
b00000 3!
b00 4!
05!
06!
b00000 7!
b00 8!
09!
0:!
b00000 ;!
b00000000000000000000000000000000 <!
0=!
b0000000 >!
0?!
1@!
b000 A!
0B!
0C!
0D!
0E!
b00000000000000000000000000000000 F!
b00000000000000000000000000000000 G!
0H!
b00000000000000000000000000000000 I!
b00000000000000000000000000000000 J!
b00000000000000000000000000000000 K!
b00000000000000000000000000000000 L!
b00000000000000000000000000000000 M!
b00000000000000000000001000000000 N!
0O!
b00000000000000000000000000000000 P!
b00000000000000000000000000000000 Q!
b00000000000000000000000000000100 R!
b00000000000000000000000000100000 S!
b00000000000000000000000000001000 T!
b00000000000000000000000000010000 U!
#5000
0)
0*
0+
02
b01 F
b01 R
0|
b111 ~
b11 4!
b11 8!
0@!
1C!
b00000000000000000000000000000100 M!
#10000
0C!
#15000
b11111111011000000000001100010011 5
b00000000000000000000000000000100 6
b00000000101000000000001010010011 !!
b01010 #!
b00101 $!
1)!
b11 0!
b00000000000000000000000000001010 1!
1=!
b0010011 >!
1C!
1D!
b00000000000000000000000000001000 M!
#20000
0C!
#25000
b00000000000000000000000000001010 /
b00000000000000000000000000001010 0
b01010 4
b01000000011000101000001110110011 5
b00000000000000000000000000001000 6
b00000000000000000000000000000100 8
b11 9
b01010 =
b00000000000000000000000000001010 ?
1D
b00000000101000000000001010010011 H
b0010011 J
b0110011 Z
b11111111011000000000001100010011 !!
b10110 #!
b00110 $!
b11111111111111111111111111110110 1!
12!
b00101 3!
1B!
1C!
b00000000000000000000000000001100 M!
#30000
0C!
#35000
b10 (
b11111111111111111111111111110110 /
b11111111111111111111111111110110 0
b10110 4
b00000000001000101001010000010011 5
b00000000000000000000000000001100 6
b00000000000000000000000000001000 8
b10110 =
b00000000000000000000000000000100 >
b11111111111111111111111111110110 ?
b11111111011000000000001100010011 H
b11 K
b0010011 Z
b00000000000000000000000000001010 z
b01000000011000101000001110110011 !!
b00101 "!
b00110 #!
b00111 $!
1%!
0)!
b00000000000000000000000000000000 1!
b00110 3!
16!
b00101 7!
b0110011 >!
1C!
b00000000000000000000000000001010 K!
b00000000000000000000000000010000 M!
#40000
0C!
#45000
b01 &
b10 '
b01 (
b00000000000000000000000000001010 ,
b11111111111111111111111111110110 -
b00000000000000000000000000001010 .
b00000000000000000000000000010100 0
b01000000000100110101010010010011 5
b00000000000000000000000000010000 6
b00000000000000000000000000001100 8
b00101 <
b00110 =
b00000000000000000000000000001000 >
b00000000000000000000000000000000 ?
1A
0D
b01000000011000101000001110110011 H
b0110011 J
b00000000000000000000000000000100 M
b00000000000000000000000000001010 N
b11 Q
b11111111111111111111111111110110 z
b00000000001000101001010000010011 !!
b00010 #!
b01000 $!
0%!
b001 &!
1)!
1.!
b00000000000000000000000000000010 1!
b00111 3!
b00110 7!
1:!
b00101 ;!
b00000000000000000000000000001010 <!
b0010011 >!
b001 A!
0B!
1C!
b00000000000000000000000000010100 M!
#50000
b00000000000000000000000000001010 _
0C!
b00000000000000000000000000001010 I!
#55000
b00 &
b00 '
b00000000000000000000000000000000 -
b00000000000000000000000000000010 /
b00000000000000000000000000101000 0
b00010 4
b00000000001000110101010100110011 5
b00000000000000000000000000010100 6
b00000000000000000000000000010000 8
b00000000000000000000000000001010 :
b00010 =
b00000000000000000000000000001100 >
b00000000000000000000000000000010 ?
b001 @
0A
1D
1G
b00000000001000101001010000010011 H
b0010011 J
b00000000000000000000000000001000 M
b11111111111111111111111111110110 N
b00000000000000000000000000000100 P
b0110011 Z
b00000000000000000000000000010100 z
b11111111111111111111111111110110 {
b01000000000100110101010010010011 !!
b00110 "!
b00001 #!
b01001 $!
1%!
b101 &!
1+!
b00000000000000000000010000000001 1!
b01000 3!
b00111 7!
b00110 ;!
b11111111111111111111111111110110 <!
b101 A!
1B!
1C!
b00000000000000000000000000000000 I!
b11111111111111111111111111110110 K!
b00000000000000000000000000011000 M!
#60000
b11111111111111111111111111110110 `
0C!
b11111111111111111111111111110110 I!
#65000
b00 (
b11111111111111111111111111110110 ,
b11111111111111111111111111110110 .
b00000000000000000000010000000001 /
b11111111111111111111111111111011 0
b00001 4
b00000000010100000000010110010011 5
b00000000000000000000000000011000 6
b00000000000000000000000000010100 8
b11111111111111111111111111110110 :
b00110 <
b00001 =
b00000000000000000000000000010000 >
b00000000000000000000010000000001 ?
b101 @
1A
1B
b01000000000100110101010010010011 H
b00000000000000000000000000001100 M
b00000000000000000000000000010100 N
b00000000000000000000000000001000 P
b0010011 Z
b00000000000000000000000000101000 z
b00000000000000000000000000000000 {
b00000000001000110101010100110011 !!
b00010 #!
b01010 $!
0%!
0)!
b00000000000000000000000000000000 1!
b01001 3!
b01000 7!
b00111 ;!
b00000000000000000000000000010100 <!
b0110011 >!
0B!
1C!
b00000000000000000000000000011100 M!
#70000
b00000000000000000000000000010100 a
0C!
#75000
b00000000000000000000000000000000 /
b11111111111111111111111111110110 0
b00000 4
b00000000101101011000011000110011 5
b00000000000000000000000000011100 6
b00000000000000000000000000011000 8
b00010 =
b00000000000000000000000000010100 >
b00000000000000000000000000000000 ?
0A
0D
b00000000001000110101010100110011 H
b0110011 J
1L
b00000000000000000000000000010000 M
b00000000000000000000000000101000 N
b00000000000000000000000000001100 P
b0110011 Z
b11111111111111111111111111111011 z
b00000000010100000000010110010011 !!
b00000 "!
b00101 #!
b01011 $!
b000 &!
1)!
0+!
0.!
b00000000000000000000000000000101 1!
b01010 3!
b01001 7!
b01000 ;!
b00000000000000000000000000101000 <!
b0010011 >!
b000 A!
1C!
b00000000000000000000000000000000 I!
b00000000000000000000000000001010 J!
b00000000000000000000000000000000 K!
b00000000000000000000000000100000 M!
#80000
b00000000000000000000000000101000 b
0C!
#85000
b00000000000000000000000000000000 ,
b00000000000000000000000000001010 -
b00000000000000000000000000000000 .
b00000000000000000000000000000101 /
b00000000000000000000000000000101 0
b00101 4
b00000000110001100000011010110011 5
b00000000000000000000000000100000 6
b00000000000000000000000000011100 8
b00000000000000000000000000000000 :
b00000000000000000000000000001010 ;
b00000 <
b00101 =
b00000000000000000000000000011000 >
b00000000000000000000000000000101 ?
b000 @
0B
1D
0G
b00000000010100000000010110010011 H
b0010011 J
b00000000000000000000000000010100 M
b11111111111111111111111111111011 N
b00000000000000000000000000010000 P
b11111111111111111111111111110110 z
b00000000101101011000011000110011 !!
b01011 "!
b01011 #!
b01100 $!
0)!
b00000000000000000000000000000000 1!
b01011 3!
b01010 7!
b01001 ;!
b11111111111111111111111111111011 <!
b0110011 >!
1C!
b00000000000000000000000000000000 J!
b00000000000000000000000000100100 M!
#90000
b11111111111111111111111111111011 c
0C!
#95000
b10 &
b10 '
b00000000000000000000000000000101 ,
b00000000000000000000000000000101 -
b00000000000000000000000000000101 .
b00000000000000000000000000001010 0
b00000000101101101000011100110011 5
b00000000000000000000000000100100 6
b00000000000000000000000000100000 8
b00000000000000000000000000000000 ;
b01011 <
b01011 =
b00000000000000000000000000011100 >
b00000000000000000000000000000000 ?
0D
b00000000101101011000011000110011 H
b0110011 J
0L
b00000000000000000000000000011000 M
b11111111111111111111111111110110 N
b00000000000000000000000000010100 P
b00000000000000000000000000000101 z
b00000000000000000000000000001010 {
b00000000110001100000011010110011 !!
b01100 "!
b01100 #!
b01101 $!
b01100 3!
b01011 7!
b01010 ;!
b11111111111111111111111111110110 <!
1C!
b00000000000000000000000000101000 M!
#100000
b11111111111111111111111111110110 d
0C!
#105000
b00000000000000000000000000001010 ,
b00000000000000000000000000001010 -
b00000000000000000000000000001010 .
b00000000000000000000000000001010 /
b00000000000000000000000000010100 0
b01010 4
b00000010100000000010011110000011 5
b00000000000000000000000000101000 6
b00000000000000000000000000100100 8
b01100 <
b01100 =
b00000000000000000000000000100000 >
b00000000110001100000011010110011 H
b00000000000000000000000000011100 M
b00000000000000000000000000000101 N
b00000000000000000000000000011000 P
1Y
b0000011 Z
b00000000000000000000000000001010 z
b00000000000000000000000000000101 {
b00000000101101101000011100110011 !!
b01101 "!
b01011 #!
b01110 $!
b01101 3!
b01100 7!
b01011 ;!
b00000000000000000000000000000101 <!
1C!
b00000000000000000000000000101100 M!
#110000
b00000000000000000000000000000101 e
0C!
b00000000000000000000000000000101 J!
#115000
b00 '
b00000000000000000000000000010100 ,
b00000000000000000000000000000101 -
b00000000000000000000000000010100 .
b00000000000000000000000000000101 /
b00000000000000000000000000011001 0
b00101 4
b00000000000001111000100000110011 5
b00000000000000000000000000101100 6
b00000000000000000000000000101000 8
b00000000000000000000000000000101 ;
b01101 <
b01011 =
b00000000000000000000000000100100 >
b00000000101101101000011100110011 H
b00000000000000000000000000100000 M
b00000000000000000000000000001010 N
b00000000000000000000000000011100 P
0Y
b0110011 Z
b00000000000000000000000000010100 z
b00000000000000000000000000001010 {
b00000010100000000010011110000011 !!
b00000 "!
b01000 #!
b01111 $!
1)!
b10 *!
b10 0!
b00000000000000000000000000101000 1!
b01110 3!
b01101 7!
b01100 ;!
b00000000000000000000000000001010 <!
b0000011 >!
b010 A!
1C!
b00000000000000000000000000101000 J!
b00000000000000000000000000110000 M!
#120000
b00000000000000000000000000001010 f
0C!
#125000
0#
0$
1%
b00 &
b00000000000000000000000000000000 ,
b00000000000000000000000000101000 -
b00000000000000000000000000000000 .
b00000000000000000000000000101000 /
b00000000000000000000000000101000 0
03
b01000 4
b00000000010101010000011001100011 5
b00000000000000000000000000110000 6
b00000000000000000000000000101100 8
b10 9
b00000000000000000000000000101000 ;
b00000 <
b01000 =
b00000000000000000000000000101000 >
b00000000000000000000000000101000 ?
1D
b00000010100000000010011110000011 H
b0000011 J
b00000000000000000000000000100100 M
b00000000000000000000000000010100 N
b00000000000000000000000000100000 P
b1100011 Z
b00000000000000000000000000011001 z
b00000000000000000000000000000101 {
b00000000000001111000100000110011 !!
b01111 "!
b00000 #!
b10000 $!
0)!
b11 *!
b11 0!
b00000000000000000000000000000000 1!
b01111 3!
b10 4!
b01110 7!
b01101 ;!
b00000000000000000000000000010100 <!
b0110011 >!
1@!
b000 A!
1C!
b00000000000000000000000000000000 J!
b00000000000000000000000000110100 M!
#130000
b00000000000000000000000000010100 g
0C!
#135000
1#
1$
0%
b10 (
b00000000000000000000000000000000 -
b00000000000000000000000000000000 /
b00000000000000000000000000000000 0
13
b00000 4
b00 9
b00000000000000000000000000000000 ;
b00000 =
b00000000000000000000000000000000 >
b00000000000000000000000000000000 ?
0D
b00000000000000000000000000000000 H
b0000000 J
b10 K
b00000000000000000000000000101000 M
b00000000000000000000000000011001 N
b00000000000000000000000000100100 P
b00000000000000000000000000101000 z
b00000000000000000000000000101000 {
1|
b010 ~
02!
b00000 3!
b11 4!
b01111 7!
b10 8!
b01110 ;!
b00000000000000000000000000011001 <!
0@!
1C!
b10100101101001010101101001011010 F!
b00000000000000000000000000101000 K!
b10100101101001010101101001011010 L!
#140000
b00000000000000000000000000011001 h
0C!
#145000
b01 &
b00 (
b10100101101001010101101001011010 ,
b10100101101001010101101001011010 .
b10100101101001010101101001011010 0
b00000000000000000000000000010011 5
b00000000000000000000000000110100 6
b00000000000000000000000000110000 8
b11 9
b01111 <
b00000000000000000000000000101100 >
b00000000000001111000100000110011 H
b0110011 J
b00 K
b00000000000000000000000000000000 M
b00000000000000000000000000101000 N
b10100101101001010101101001011010 O
b00000000000000000000000000101000 P
b10 Q
b0010011 Z
b00000000000000000000000000000000 z
b00000000000000000000000000000000 {
0|
b111 ~
b00000000010101010000011001100011 !!
b01010 "!
b00101 #!
b01100 $!
1(!
1)!
b00 -!
b00 0!
b00000000000000000000000000001100 1!
12!
b10000 3!
06!
b00000 7!
b11 8!
b01111 ;!
b10100101101001010101101001011010 <!
0=!
b1100011 >!
1?!
1C!
b00000000000000000000000000000000 F!
b00000000000000000000000000111100 G!
b11111111111111111111111111110110 I!
b00000000000000000000000000001010 J!
b11111111111111111111111111110110 K!
b00000000000000000000000000000000 L!
b00000000000000000000000000111000 M!
#150000
b10100101101001010101101001011010 i
0C!
